
<svg width="52px" height="52px" viewBox="0 0 52 52" version="1.1" xmlns="http://www.w3.org/2000/svg" xmlns:xlink="http://www.w3.org/1999/xlink">
    <!-- Generator: Sketch 50.2 (55047) - http://www.bohemiancoding.com/sketch -->
    <desc>Created with Sketch.</desc>
    <defs></defs>
    <g id="Page-1" stroke="none" stroke-width="1" fill="none" fill-rule="evenodd">
        <g id="Group-4" transform="translate(1.000000, 1.000000)">
            <circle id="Oval" stroke="#91DC5A" stroke-width="2" cx="25" cy="25" r="25"></circle>
            <g id="ruler" transform="translate(9.000000, 10.000000)" fill="#91DC5A" fill-rule="nonzero">
                <path d="M16.0249996,11.8025806 C15.1699883,11.8025806 14.4741932,12.4645086 14.4741932,13.2779031 C14.4741932,14.0912976 15.1699883,14.7532257 16.0249996,14.7532257 C16.8800109,14.7532257 17.575806,14.0912976 17.575806,13.2779031 C17.575806,12.4645086 16.8800109,11.8025806 16.0249996,11.8025806 Z M16.0249996,13.7696773 C15.7396512,13.7696773 15.5080641,13.5488707 15.5080641,13.2779031 C15.5080641,13.0069355 15.7396512,12.7861289 16.0249996,12.7861289 C16.310348,12.7861289 16.5419351,13.0069355 16.5419351,13.2779031 C16.5419351,13.5488707 16.310348,13.7696773 16.0249996,13.7696773 Z" id="Shape"></path>
                <path d="M32.0499992,15.2449999 C32.0499992,6.83910366 24.8614946,0 16.0249996,0 C7.18850467,0 0,6.83910366 0,15.2449999 L0,15.7367741 L10.8396199,15.7367741 L7.3565087,24.2051256 C7.27741757,24.3979011 7.2370966,24.6010038 7.2370966,24.8085326 L7.2370966,24.8995108 C7.2370966,25.5727496 7.66305143,26.1510761 8.27096755,26.4097493 L8.27096755,28.0311288 L9.30483849,28.0311288 L9.30483849,26.5223656 C9.8879417,26.4146671 10.3893691,26.0281325 10.6054481,25.489148 L14.1438714,16.6534412 L14.187294,16.7203225 L17.8621883,16.7203225 L17.8771794,16.6977008 L19.7314269,22.1298385 L19.6435479,22.1298385 L19.6435479,25.0804837 L21.7112898,25.0804837 L21.7112898,26.5558063 L22.623164,29.6598849 C22.7694567,30.1487085 23.2450373,30.4899998 23.7790317,30.4899998 C24.313026,30.4899998 24.7886067,30.1487085 24.9348994,29.6598849 L25.82713,26.6905524 L25.8421212,25.0804837 L27.9145155,25.0804837 L27.9145155,22.1298385 L25.8467736,22.1298385 L25.8467736,19.6709676 C25.8467736,18.8575731 25.1509784,18.195645 24.2959672,18.195645 L23.2620962,18.195645 C22.7880664,18.195645 22.3683148,18.4031737 22.0834833,18.7233187 L21.0439261,15.7367741 L32.0499992,15.7367741 L32.0499992,15.2449999 Z M9.6387788,25.1390048 C9.53539171,25.3981698 9.27020381,25.5722579 8.97813527,25.5722579 C8.58784899,25.5722579 8.27096755,25.2708003 8.27096755,24.8995108 L8.27096755,24.8085326 C8.27096755,24.7244392 8.28699254,24.6418211 8.32007641,24.5631372 L12.5630828,14.2471901 L13.4563473,15.6064539 L9.6387788,25.1390048 Z M17.2889068,15.7367741 L14.7610924,15.7367741 L12.4819239,12.2677989 L13.2428529,10.8190322 L18.8071463,10.8190322 L19.5685923,12.2677989 L17.2889068,15.7367741 Z M14.9911287,9.8354838 L14.9911287,6.88483866 L17.0588706,6.88483866 L17.0588706,9.8354838 L14.9911287,9.8354838 Z M23.9403156,29.3908845 C23.8999946,29.5271059 23.6580688,29.5275977 23.6177478,29.3903927 L22.9136817,27.0475804 L24.6443817,27.0475804 L23.9403156,29.3908845 Z M24.8129026,26.0640321 L22.7451607,26.0640321 L22.7451607,25.0804837 L24.8129026,25.0804837 L24.8129026,26.0640321 Z M22.7451607,19.6709676 C22.7451607,19.3995082 22.9767478,19.1791934 23.2620962,19.1791934 L24.2959672,19.1791934 C24.5813155,19.1791934 24.8129026,19.3995082 24.8129026,19.6709676 L24.8129026,20.1627418 L22.7451607,20.1627418 L22.7451607,19.6709676 Z M22.7451607,21.1462902 L24.8129026,21.1462902 L24.8129026,22.1298385 L22.7451607,22.1298385 L22.7451607,21.1462902 Z M26.8806445,23.1133869 L26.8806445,24.0969353 L20.6774189,24.0969353 L20.6774189,23.1133869 L26.8806445,23.1133869 Z M21.7112898,20.782869 L21.7112898,22.1298385 L20.8185422,22.1298385 L18.5926181,15.6089128 L19.4538326,14.2978428 L21.7112898,20.782869 Z M20.7017148,14.7532257 L20.1661697,13.2139725 L20.7528914,12.3209106 L20.4799495,11.8025806 L22.2282253,11.8025806 L22.2282253,10.8190322 L19.963014,10.8190322 L19.4460786,9.8354838 L18.0927415,9.8354838 L18.0927415,5.90129028 L13.9572577,5.90129028 L13.9572577,9.8354838 L12.6039207,9.8354838 L12.0869852,10.8190322 L6.21769985,10.8190322 C8.00319497,7.26153769 11.8517796,4.9177419 16.0249996,4.9177419 C20.1982197,4.9177419 24.0468043,7.26153769 25.8322994,10.8190322 L23.2620962,10.8190322 L23.2620962,11.8025806 L27.3774195,11.8025806 L27.100859,11.1313088 C25.3282873,6.82631753 20.8774729,3.93419352 16.0249996,3.93419352 C11.1725263,3.93419352 6.72171194,6.82631753 4.9491402,11.1313088 L4.67257973,11.8025806 L11.5700497,11.8025806 L11.2976247,12.3209106 L11.880211,13.2075794 L11.2443804,14.7532257 L1.04265885,14.7532257 C1.31611771,7.1164643 7.93185788,0.98354838 16.0249996,0.98354838 C24.1181414,0.98354838 30.7338815,7.1164643 31.0073404,14.7532257 L20.7017148,14.7532257 Z" id="Shape"></path>
            </g>
        </g>
    </g>
</svg>