
<svg width="130px" height="19px" viewBox="0 0 130 19" version="1.1" xmlns="http://www.w3.org/2000/svg" xmlns:xlink="http://www.w3.org/1999/xlink">
    <!-- Generator: Sketch 50.2 (55047) - http://www.bohemiancoding.com/sketch -->
    <desc>Created with Sketch.</desc>
    <defs></defs>
    <g id="Page-1" stroke="none" stroke-width="1" fill="none" fill-rule="evenodd" font-family="ArialNarrow-Bold, Arial Narrow" font-size="24" font-weight="bold" letter-spacing="0.0405000001">
        <g id="Desktop" transform="translate(-438.000000, -181.000000)" fill="#FFFFFF">
            <text id="FLOOR-PLAN">
                <tspan x="437.663969" y="199">FLOOR  </tspan>
                <tspan x="517.775594" y="199" font-family="ArialNarrow, Arial Narrow" font-weight="normal">PLAN</tspan>
            </text>
        </g>
    </g>
</svg>